{
  "Navigation": {
    "Pages": [
      {
        "Id": "1",
        "Name": "Home"
      },
      {
        "Id": "2",
        "Name": "Products",
        "Pages": [
          {
            "Id": "1-1",
            "Name": "Group 1"
          },
          {
            "Id": "1-2",
            "Name": "Group 2"
          }
        ]
      },
      {
        "Id": "3",
        "Name": "Contact"
      }
    ]
  }
}